[
Order [createdAt=2017-11-02T13:36:06.443, side=BUY, size=0.00779451, totalSize=0.00779451, price=6159.46, fee=1.99, total=-50.0, totalCost=-50.0, averageBuyPrice=-6414.771422449904, averageBuyCost=null, profit=null], 
Order [createdAt=2017-11-02T13:40:44.443, side=BUY, size=0.07010374, totalSize=0.07789825, price=6172.71, fee=17.27, total=-450.0, totalCost=-500.0, averageBuyPrice=-6418.629430057799, averageBuyCost=null, profit=null], 
Order [createdAt=2017-11-02T13:42:41.443, side=BUY, size=0.001411, totalSize=0.07930925, price=6080.79, fee=0.0, total=0.0, totalCost=-500.0, averageBuyPrice=-6304.4348546985375, averageBuyCost=null, profit=null], 
Order [createdAt=2017-11-30T13:40:44.443, side=BUY, size=0.22183014, totalSize=0.30113939, price=8932.42, fee=29.52, total=-2011.0, totalCost=-2511.0, averageBuyPrice=-8338.33129568337, averageBuyCost=null, profit=null], 
Order [createdAt=2017-12-08T05:12:06.443, side=SELL, size=0.15, totalSize=0.15113939, price=14161.56, fee=5.310585, total=2118.923415, totalCost=-392.0765849999998, averageBuyPrice=-8338.33129568337, averageBuyCost=-1250.7496943525055, profit=868.1737206474947], 
Order [createdAt=2017-12-08T05:27:50.958, side=SELL, size=0.1, totalSize=0.05113939000000001, price=13703.06, fee=3.425765, total=1366.880235, totalCost=974.8036500000003, averageBuyPrice=-8338.33129568337, averageBuyCost=-833.8331295683371, profit=533.047105431663], 
Order [createdAt=2017-12-08T05:59:56.079, side=BUY, size=0.067, totalSize=0.11813939000000001, price=14300.0, fee=0.0, total=-958.1, totalCost=16.703650000000266, averageBuyPrice=141.3893367825944, averageBuyCost=null, profit=null], 
Order [createdAt=2017-12-08T06:00:03.070, side=BUY, size=0.113, totalSize=0.23113939, price=14300.0, fee=0.0, total=-1615.9, totalCost=-1599.1963499999997, averageBuyPrice=-6918.753008736416, averageBuyCost=null, profit=null]]
